112.15
114.3
106.266666666667
116.391666666667
121.5
117.183333333333
120.166666666667
114.283333333333
118.766666666667
123.883333333333
104.066666666667
116.633333333333
119.966666666667
118.583333333333
126.633333333333
120.7
118.089419444444
106.566666666667
120.383333333333
120.6
112.972222222222
113.65
116.983333333333
112.560277777778
120.3
102.683333333333
117.283333333333
121.639166666667
121.55
119.306388888889
106.633333333333
108.316666666667
117.166666666667
115.883333333333
103.8
119.416666666667
110.341666666667
120.9
112.9
109.383333333333
106.266666666667
112.442222222222
110.4
111.683333333333
101.766666666667
112.133
118.883333333333
119.65
110.283333333333
110.916666666667
114.333333333333
112.6
119.433333333333
118.35
122.402777777778
117.033333333333
119.416666666667
113.433333333333
119.916666666667
115.987222222222
113.55
123.183333333333
116.866666666667
110.15
119.916666666667
91.1166666666667
100.233333333333
113.3
116.179166666667
126.983333333333
108.9
112.466666666667
113.266666666667
116
100.15
74.55
72.8258333333333
77.5666666666667
72.8258333333333
78.4
79.58
72.58
80.27
80.2687
72.83
73.8566666666666
82.0506194444444
80.3334055555555
79.27
72.9570194444444
75.3
83.2187583333333
85.144
73.2002777777778
77.42
82.9563
74.79
76.9725
79.9386111111111
78.1780222222222
73.02
78.1193944444444
81.38
91.7333333333333
79.415
78.6855555555556
85.84
78.16
76.9236111111111
77.546
77.7647222222222
85.52
76.27
72.15
78.0336
77.27
74.14
74.64
75.7772222222222
79.97
74.87
74.55
77.7
74.55
75.77
77
78.05
76.9333
76.563492
85.45
77.6736111111111
76.6
81.78
75.5666666666667
75.97
85.51
85.9
79.42
74.95
81.28
84.4
79.03
80.3
77.37
73.33
85.83
70.9
79.8766777777778
79.8877777777778
79.8333333333333
80.6491666666667
80.3833333333333
79.8352777777778
80.0333333333333
79.9041666666667
79.9833333333333
80.2333333333333
79.9
80.3666666666667
80.7597222222222
92.0166666666667
88.75
88.65
89.25
91.8666666666667
89.3666666666667
89.3427222222222
67.0188888888889
66.6166666666667
63.0605555555556
66.5833333333333
69.26
62.19
71.5833333333333
72.2
72.22
71.43
73.2
74.3436111111111
71.4697222222222
74.1833333333333
74.5361111111111
73.985
71.3833333333333
67.01
68.8666666666667
74.04
73.28
85.9216666666667
85.5166666666667
66.5833333333333
69.26
62.19
71.5833333333333
72.2
72.22
71.43
73.2
74.3436111111111
71.4697222222222
74.1833333333333
74.5361111111111
73.985
67.01
68.8666666666667
74.04
73.28
85.9216666666667
85.5166666666667
135.502222222222
136.906386111111
135.195555555556
135.768333333333
130.4
140.1
135.483055555556
139.036388888889
137.733333333333
139.366666666667
138.383333333333
133.916666666667
139.983333333333
130.55
132.766666666667
139.716666666667
133.766666666667
139.933333333333
139.666666666667
136.766666666667
139.666666666667
137.383333333333
135.8
140.883333333333
135.85
140.75
141.15
140.466666666667
140.466666666667
139.477661111111
139.45
135.366666666667
127.719422222222
134.683333333333
140.466666666667
-78.6482944444444
-79.0138888888889
-80.45
-79.075
-78.5
-77.8466527777778
-79.4333333333333
-76.9002777777778
-75.8291666666667
-71.9822222222222
-74.9436111111111
-71.9722222222222
-76.2397138888889
-73.3833333333333
-72.5455555555556
-72.2633333333333
-68.6733333333333
-73.2058333333333
-72.8886111111111
-72.8738055555556
-72.9319222222222
127.016666666667
126.933333333333
127.133333333333
126.766666666667
126.75
127.116666666667
127.083333333333
126.452222222222
128.663055555556
128.583333333333
128.75
128.083333333333
126.38
127.733333333333
127.483333333333
126.716666666667
127.733333333333
129.165
127.483333333333
128.716666666667
128.266666666667
129.216666666667
128.201388888889
128.17
126.954444444444
127.385833333333
126.977969444444
126.633333333333
129.075555555556
109.183333333333
109.233333333333
108.233333333333
98.6
96.0833333333333
97.2333333333333
96.0333333333333
94.7316666666667
97.6
97.3666666666667
96.1497222222222
96.4833333333333
94.8666666666667
96.1302777777778
105.866666666667
105.966666666667
105.040025
105.151666666667
105.666666666667
103.972222222222
103.962777777778
104.680277777778
102.493888888889
100.626944444444
99.8922222222222
100.0625
99.9463888888889
99.8144444444444
99.2
99.5
96.0166666666667
98.9986111111111
99.9630555555556
100.263611111111
99.8275
100.565
101.250833333333
100.0625
104.916666666667
104.783333333333
105.776388888889
105.032044444444
103.016666666667
106.599722222222
108.116666666667
105.954166666667
106.681944444444
105.85
102.133333333333
102.45
102.6
-98.8438
-97.2108333333333
-99.1833333333333
-90.5
-98.88
-98.8666666666667
-98.8727777777778
-99.05
-99.1684722222222
-99.114
-99.1402777777778
-98.9
-99.1616666666667
-99.0930555555556
-99.5858333333333
-97.4
-102.6
-99.1078277777778
-98.8822222222222
-99.1388888888889
-98.7666666666667
-98.6666666666667
-97.4
-98.1608333333333
-99.6833333333333
-104.566666666667
-97.8166666666667
-97.4166666666667
-99.0833333333333
-99.6569444444444
-99.2736111111111
-98.9
-99.2341666666667
-98.9666666666667
-98.3063888888889
-99.5
-99.5902777777778
-96.7677777777778
-96.5569444444444
-96.8833333333333
-96.9833333333333
-96.75
-96.4919444444444
-96.4
-95.3233333333333
-97.2833333333333
-97.5166666666667
-96.7816666666667
-97.4161111111111
-97.6833333333333
-97.6
-99.125
-98.4383333333333
-97.2833333333333
-101.574166666667
-91.0108
-89.4666666666667
-89.1175916666666
-90.0611111111111
-88.56865
-90.1902194444444
-87.7361111111111
-89.14
-90.2958333333333
-89.5903
-89.4111111111111
-90.5491
-89.4605555555556
-89.9204305555556
-89.8331
-89.25
-89.95385
-92.0463305555556
-91.2625
-89.0402777777778
-91.1719888888889
-89.6236138888889
-87.4288888888889
-89.7713888888889
-90.9666666666667
-89.3840777777778
-89.8108277777778
-7.58333333333333
-5
-6.8
-8
-5.8
-6.83333333333333
-5.55472222222222
-1.91138888888889
-5.36666666666667
-9.23333333333333
-6.91222222222222
-7.38333333333333
-5.9
-6.03333333333333
-9.76972222222222
-8.86666666666667
3.21666666666667
-0.633055555555556
6.6
7.76666666666667
6.16666666666667
5.4
8.11666666666667
1.31666666666667
-36.75
-1.31666666666667
2.88333333333333
3.66666666666667
10.1833333333333
10.7666666666667
10.0833333333333
10.6333333333333
10.1166666666667
9.86666666666667
8.78333333333333
9.18333333333333
11.0666666666667
13.1858333333333
20.0666666666667
15.0920166666667
21.7416666666667
12.0833333333333
20.2252777777778
20.8338888888889
23.2833333333333
31.2288888888889
29.9192
31.2166666666667
32.55
31.6833333333333
31.8166666666667
47.305
46.7166666666667
39.1727777777778
39.8166666666667
39.6
40.4166666666667
36.5833333333333
39.0943305555556
49.6219444444444
38.7905555555556
41.9440194444444
35.6961666666667
39.8683055555556
41.05
45.3333333333333
45.9636111111111
39.2925
49.6
44.1322222222222
50.0166666666667
38.5438888888889
37.9166666666667
46.3913888888889
43.6322222222222
44.0219444444444
44.2063888888889
45.0333333333333
44.4016666666667
49.1333333333333
45.3802777777778
53.92
43.3244444444444
44.3802777777778
45.35
35.3434888888889
43.25
57.298
58.55
55.75
58.54
57.5333333333333
54.0897222222222
59.5288888888889
54.3666666666667
55.7447222222222
56.2733333333333
55.3
56.3333333333333
55.95
35.9327777777778
35.7
35.85
35.8913972222222
35.8091833333333
35.6166666666667
35.7333333333333
35
35.7333333333333
35.8
35.0816666666667
35.2880861111111
35.2131555555556
35.1878972222222
34.65
34.5666666666667
34.7997083333333
35.5
34.9866472222222
34.95
34.9833333333333
35.2166666666667
34.9083333333333
34.889
35.2666666666667
35.3033333333333
34.9834083333333
34.8666666666667
35.4983333333333
35.1694444444444
35.0102777777778
34.7833333333333
35.5357166666667
34.9483333333333
35.1536111111111
34.7377777777778
35.11
47.065
45.0725
57.0833333333333
48.5166666666667
49.6891666666667
54.3677777777778
48.2833333333333
56.2666666666667
50
54.4347222222222
53.06
51.4772222222222
48.4019444444444
48.9016666666667
48.3041666666667
57.6819444444444
58.7958333333333
50.3566666666667
44.9522222222222
50.8333333333333
46.2375
46.2663888888889
55.1672222222222
54.9763888888889
53.3972222222222
48.1663888888889
45.775
53.5605555555556
59.6
51.0102777777778
51.4230555555556
51.65
46.3
52.5333333333333
48.6691666666667
50.8763888888889
51.5211111111111
47.715
44.7652777777778
50.0038888888889
48.3769444444444
48.1186111111111
50.9075
57.51
57.51
87.5833333333333
75.9833333333333
106.8
106.8
112.62
109.666666666667
110.544386111111
112.7425
110.364444444444
114.583333333333
117.633333333333
127.4
118.683333333333
122.600833333333
119.416666666667
104.756733333333
110.491666666667
109.666666666667
112.366666666667
103.616666666667
110.666666666667
110.219522222222
110.204
111.516666666667
110.342011111111
110.504444444444
110.488888888889
110.472777777778
110.23
111.516666666667
112.016666666667
106.158611111111
101.45
102.384444444444
103.2
102.933333333333
121.033333333333
121.033333333333
120.966666666667
121.016666666667
121.083333333333
125.533333333333
121.166666666667
123.85
120.811388888889
123.499166666667
123.158333333333
19.1175
20.2975
18.0366666666667
18.9219444444444
17.5883333333333
19.1461111111111
18.0875
18.74
21.2613888888889
17.1097222222222
18.3536111111111
13.6366666666667
15.77
14.4747222222222
15.8319444444444
14.0333333333333
17.2513888888889
13.3666666666667
18.2925
16.6
14.4211111111111
6.17277777777778
5.29833333333333
5.68333333333333
4.48333333333333
6.08333333333333
4.66666666666667
5.38
5.91666666666667
4.63333333333333
6.89638888888889
5.86666666666667
4.76666666666667
6.56666666666667
5.07
5.48333333333333
5.1
4.31666666666667
4.48111111111111
4.89222222222222
3.2
3.11666666666667
3.38333333333333
2.9
4.13333333333333
5.33333333333333
3.28333333333333
4.31666666666667
4.18333333333333
4.03333333333333
4.36666666666667
4.47805555555556
3.93333333333333
4.7
4.31666666666667
4.85
4.38333333333333
3.23333333333333
4.35194444444444
5.56666666666667
3.71666666666667
4.38333333333333
6.88333333333333
7
7.48333333333333
9.5
8.27111111111111
12.1333333333333
11.0333333333333
10.6863888888889
7.85
11.6166666666667
11.9666666666667
6.56666666666667
10.1405555555556
12.9166666666667
10.5166666666667
7.55
6.43333333333333
6.08277777777778
10.8833333333333
8.23333333333333
7.63333333333333
8.4043
8.46666666666667
8.51666666666667
7.09972222222222
7.21666666666667
7.21666666666667
6.76666666666667
9.71666666666667
12.3833333333333
13.7333333333333
8.8075
7.01305555555556
7.46666666666667
6.78333333333333
9.18333333333333
8.68583333333333
6.96666666666667
10
13.3988888888889
10.8916666666667
10.1789388888889
10.8988888888889
6.64138888888889
11.0833333333333
9.26444444444444
7.16666666666667
8.46666666666667
11.5752777777778
8.73333333333333
-4.0964
4.9
7.3556
-2.2
2.3775
7.01666666666667
2.4
3.25
2.38333333333333
1.83333333333333
7.11666666666667
-1.15
-0.366666666666667
2.13333333333333
0.333333333333333
4.81
2.35
2.4436
2.25
6.1846
1.08333333333333
-0.35
7.33333333333333
1.9
2.88333333333333
6.0219
6.18333333333333
2.28333333333333
1.26205277777778
0.683333333333333
3.08333333333333
5.43333333333333
0.2
4.35
5.01666666666667
-0.55
5.71666666666667
5.98305555555556
4.4
4.03333333333333
-1.6794
3.06666666666667
-0.566666666666667
3.88333333333333
7.73333333333333
-1.55
7.25
1.43333333333333
4.83333333333333
5.36666666666667
7.3556
-1.51111111111111
2.1464
2.35
2.35
17.0333333333333
13.6333333333333
16.4333333333333
16.6833333333333
16.1833333333333
13.5833333333333
16.4948555555556
16.2833333333333
17.6735694444444
19
15.7166666666667
16.8333333333333
18.1083333333333
15.8905555555556
16.3333333333333
16.3833333333333
13.85
15.2277777777778
18.6666666666667
18.0166666666667
14.4166666666667
16.4333333333333
15.9666666666667
22.3833333333333
18.1666666666667
12.2333333333333
13.2333333333333
16.3
11.8833333333333
13.5166666666667
9.7
11.35
8.61666944444444
12.65
11.55
11.1166666666667
14.2
12.05
9.66666666666667
9.26666666666667
14.2166694444444
15.2833333333333
8.56666666666667
11.6166694444444
14.7666666666667
12.5666666666667
15.55
9.11666666666667
12.2
12.3833333333333
10.6333333333333
10.9258333333333
15.65
10.3333333333333
11.1
17.2333333333333
10.2333333333333
13.7666666666667
11.8666666666667
15.55
10.9833333333333
12.3358333333333
15.0902777777778
16.8666666666667
11.3427777777778
8.93333333333333
13.3666666666667
7.7
14.2583333333333
9.19027777777778
12.4833333333333
1.23333333333333
0.633333333333333
-2.43333333333333
-6.96694444444444
-0.05
-6.95
-6.28333333333333
-3.73111111111111
-1.85583333333333
-1.64388888888889
-3.36666666666667
2.00805555555556
-0.983333333333333
-2.45
-1.98555555555556
-6.11666666666667
-5.66760555555556
-5.58333333333333
-3.7
-5.84459722222222
2.23333333333333
-3.11666666666667
-8.38333333333333
-3.60083333333333
-5.65
-0.483055555555556
2.65138888888889
-4.76666666666667
-4.02444444444444
-4.71666666666667
-1.13
-2.93333333333333
-4.41620277777778
-0.89675
-5.98694444444444
-0.383333333333333
-3.68333333333333
2.16991944444444
-4.68333333333333
-3.18888888888889
28
-9.38805555555556
-1.08027777777778
13.6466666666667
19.05
-0.1275
11.3333333333333
24.7452777777778
-2.36583333333333
-1.13333333333333
10.8666666666667
13.0333333333333
4.2994